Predicción del incumplimiento de las metas cuantitativas de performance en los programas del FMI: un enfoque basado en el aprendizaje automático.
…
##  [1] 826 828 831 832 833 834 838 840 842 843 845 847 848 849 850 851 854 855 856
## [20] 858 859 860 861 862 863 872 873 874 878 879 880 881 882 883 886 889 891 894
## [39] 895 896

result <- base %>%
  filter(Arrangement.Number %in% prog_test_gra) %>%
  select(Arrangement.Number, Arrangement.Type) %>%
  distinct()

result

## # A tibble: 40 × 2
##    Arrangement.Number Arrangement.Type
##                 <dbl> <chr>           
##  1                826 EFF             
##  2                886 EFF             
##  3                874 ECF-EFF         
##  4                840 PCI             
##  5                845 EFF             
##  6                883 EFF             
##  7                847 EFF             
##  8                850 ECF-EFF         
##  9                855 EFF             
## 10                872 SBA             
## # ℹ 30 more rows

result <- base %>%
  filter(Arrangement.Number %in% prog_test_gra) %>%
  select(Arrangement.Number, Country.Code) %>%
  distinct()

result

## # A tibble: 40 × 2
##    Arrangement.Number Country.Code
##                 <dbl> <chr>       
##  1                826 213         
##  2                886 248         
##  3                874 268         
##  4                840 288         
##  5                845 316         
##  6                883 439         
##  7                847 469         
##  8                850 513         
##  9                855 524         
## 10                872 564         
## # ℹ 30 more rows
…
sort(result)

##  [1] "2022-03-31 UTC" "2022-06-30 UTC" "2022-09-30 UTC" "2022-12-31 UTC"
##  [5] "2023-03-31 UTC" "2023-06-30 UTC" "2023-09-30 UTC" "2023-12-31 UTC"
##  [9] "2024-03-31 UTC" "2024-06-30 UTC" "2024-09-30 UTC"

result <- base %>%
  filter(Arrangement.Number %in% c(826)) %>%
  select(QPC_Test_Date, R, Status, QPC_Original_Amount) %>%
  arrange(QPC_Test_Date)

print(result)

## # A tibble: 24 × 4
##    QPC_Test_Date           R Status QPC_Original_Amount
##    <dttm>              <dbl>  <dbl>               <dbl>
##  1 2022-03-31 00:00:00     1      0                 1.2
##  2 2022-03-31 00:00:00     1      0              -222. 
##  3 2022-06-30 00:00:00     2      1                 4.1
##  4 2022-06-30 00:00:00     2      0              -567. 
##  5 2022-09-30 00:00:00     3      0                 4.4
##  6 2022-09-30 00:00:00     3      0              -912. 
##  7 2022-12-31 00:00:00     4      0                 5.8
##  8 2022-12-31 00:00:00     4      0             -1759. 
##  9 2023-03-31 00:00:00     5      1                 6.2
## 10 2023-03-31 00:00:00     5      1              -365. 
## # ℹ 14 more rows
…
## # A tibble: 2 × 2
##   Arrangement.Number Arrangement.Type
##                <dbl> <chr>           
## 1                781 EFF             
## 2                872 SBA

result <- base %>%
  filter(Arrangement.Number %in% c(781)) %>%
  select(QPC_Test_Date, R, Status, QPC_Original_Amount) %>%
  arrange(QPC_Test_Date)

print(result)

## # A tibble: 22 × 4
##    QPC_Test_Date           R Status QPC_Original_Amount
##    <dttm>              <dbl>  <dbl>               <dbl>
##  1 2019-09-30 00:00:00     1      0              -18.5 
##  2 2019-09-30 00:00:00     1      0              102   
##  3 2019-12-31 00:00:00     2      0              -16.3 
##  4 2019-12-31 00:00:00     2      1              145   
##  5 2020-03-31 00:00:00     2      0              -11.8 
##  6 2020-03-31 00:00:00     2      1               96   
##  7 2020-06-30 00:00:00     2      0              -10.2 
##  8 2020-06-30 00:00:00     2      1              264   
##  9 2020-09-30 00:00:00     2      0               -8.84
## 10 2020-09-30 00:00:00     2      1              -58   
## # ℹ 12 more rows
…
